^D:\STEP\ПРЕДМЕТЫ\C++\ПРИМЕРЫ ДЛЯ СТУДЕНТОВ\1_BASE\1_BASE\MAIN.CPP
D:\STEP\Предметы\C++\Примеры для студентов\1_BASE\1_BASE\RELEASE\MAIN.OBJ
D:\STEP\ПРЕДМЕТЫ\C++\ПРИМЕРЫ ДЛЯ СТУДЕНТОВ\1_BASE\1_BASE\RELEASE\VC100.PDB
